[gd_scene load_steps=4 format=2]

[ext_resource path="res://Scripts/SixthStory.gd" type="Script" id=1]
[ext_resource path="res://Scenes/DialogBox.tscn" type="PackedScene" id=2]
[ext_resource path="res://Assets/Orbs/1-Orbs.png" type="Texture" id=4]

[node name="Node2D" type="Node2D"]

[node name="ParallaxBackground" type="ParallaxBackground" parent="."]

[node name="ParallaxLayer" type="ParallaxLayer" parent="ParallaxBackground"]
script = ExtResource( 1 )

[node name="ColorRect" type="ColorRect" parent="ParallaxBackground/ParallaxLayer"]
margin_top = -0.749161
margin_right = 1033.0
margin_bottom = 602.251
color = Color( 0, 0, 0, 1 )
__meta__ = {
"_edit_use_anchors_": false
}

[node name="DialogBox" parent="." instance=ExtResource( 2 )]

[node name="Sprite" type="Sprite" parent="."]
position = Vector2( 428.401, 348.963 )
scale = Vector2( 0.20274, 0.20274 )
texture = ExtResource( 4 )

[node name="Sprite2" type="Sprite" parent="."]
position = Vector2( 567.013, 350.757 )
scale = Vector2( 0.20274, 0.20274 )
texture = ExtResource( 4 )

[node name="Sprite3" type="Sprite" parent="."]
position = Vector2( 605.647, 246.48 )
scale = Vector2( 0.20274, 0.20274 )
texture = ExtResource( 4 )

[node name="Sprite4" type="Sprite" parent="."]
position = Vector2( 384.095, 250.206 )
scale = Vector2( 0.20274, 0.20274 )
texture = ExtResource( 4 )

[node name="Sprite5" type="Sprite" parent="."]
position = Vector2( 499.108, 166.779 )
scale = Vector2( 0.20274, 0.20274 )
texture = ExtResource( 4 )
