[gd_scene load_steps=56 format=2]

[ext_resource path="res://Assets/NewDarkMask.png" type="Texture" id=1]
[ext_resource path="res://Assets/Mossy Tileset/Resized Mossy - TileSet.png" type="Texture" id=2]
[ext_resource path="res://Scenes/Player.tscn" type="PackedScene" id=3]
[ext_resource path="res://Assets/Background/Tosca.png" type="Texture" id=4]
[ext_resource path="res://Assets/Mossy Tileset/Resized Mossy - Hills.png" type="Texture" id=5]
[ext_resource path="res://Assets/NewBlackoutMask.png" type="Texture" id=6]
[ext_resource path="res://Scripts/Timer.gd" type="Script" id=7]
[ext_resource path="res://Assets/Fonts/info_font.tres" type="DynamicFont" id=8]
[ext_resource path="res://Scenes/Orb.tscn" type="PackedScene" id=9]
[ext_resource path="res://Scenes/DialogBox.tscn" type="PackedScene" id=10]
[ext_resource path="res://Scripts/TeleportTImer.gd" type="Script" id=11]
[ext_resource path="res://Scenes/Slime.tscn" type="PackedScene" id=12]
[ext_resource path="res://Scripts/Stage.gd" type="Script" id=13]
[ext_resource path="res://Scenes/Flea.tscn" type="PackedScene" id=14]
[ext_resource path="res://Sound/Boss - Bullet Hell Monday 弾幕月曜日 OST - Boss.ogg" type="AudioStream" id=15]

[sub_resource type="ConvexPolygonShape2D" id=1]
points = PoolVector2Array( 153.75, 154.361, 10, 154.361, 10, 7.83331, 153.75, 7.83331 )

[sub_resource type="ConvexPolygonShape2D" id=2]
points = PoolVector2Array( 41, 144, 6, 144, 6, 9, 41, 9 )

[sub_resource type="ConvexPolygonShape2D" id=3]
points = PoolVector2Array( 13, 47.6666, 16, 40.6666, 20, 28.6666, 26, 25.6666, 39, 25.6666, 51, 34.6666, 55, 46.6666, 55, 62.6666, 52, 68.6666, 36, 70.6666, 31, 71.6666, 11, 62.6666, 8, 59.6666 )

[sub_resource type="ConvexPolygonShape2D" id=4]
points = PoolVector2Array( 25.8, 108.2, 28.2, 115.4, 13.8, 85.4, 40.2, 55.4, 67.8, 45.8, 106.2, 41, 131.4, 48.2, 166.2, 55.4, 190.2, 66.2, 202.2, 73.4, 214.2, 93.8, 208.2, 108.2, 167.4, 125, 131.4, 134.6, 106.2, 139.4, 71.4, 129.8, 39, 125, 30.6, 116.6, 41.4, 123.8, 33, 121.4, 30.6, 116.6 )

[sub_resource type="ConvexPolygonShape2D" id=5]
points = PoolVector2Array( 23, 61.2, 5, 50.4, 11, 32.4, 27.8, 28.8, 47, 39.6, 38.6, 52.8 )

[sub_resource type="ConvexPolygonShape2D" id=6]
points = PoolVector2Array( 19.8, 78.4, 29.4, 77.2, 39, 67.6, 82.2, 42.4, 102.6, 29.2, 126.6, 26.8, 147, 34.0001, 174.6, 43.6, 202.2, 54.4, 228.6, 67.6, 246.6, 85.6, 23.4, 91.6 )

[sub_resource type="ConvexPolygonShape2D" id=7]
points = PoolVector2Array( 24.4, 78.8, 17.2, 77.6, 11.2, 63.2, 11.2, 40.4, 19.6, 22.4, 60.4, 20.0001, 80.8, 20.0001, 86.8, 48.8, 89.2, 72.8, 54.4, 80.0001 )

[sub_resource type="ConvexPolygonShape2D" id=8]
points = PoolVector2Array( 109, 39, 8, 39, 8, 8, 109, 8 )

[sub_resource type="ConvexPolygonShape2D" id=9]
points = PoolVector2Array( 49, 35, 8, 35, 8, 6, 49, 6 )

[sub_resource type="ConvexPolygonShape2D" id=10]
points = PoolVector2Array( 114, 112, 0, 112, 0, 1, 114, 1 )

[sub_resource type="ConvexPolygonShape2D" id=11]
points = PoolVector2Array( 118, 91, -1, 91, -1, 9, 118, 9 )

[sub_resource type="ConvexPolygonShape2D" id=12]
points = PoolVector2Array( 94, 110, 10, 110, 10, 1, 94, 1 )

[sub_resource type="ConvexPolygonShape2D" id=13]
points = PoolVector2Array( 31.8745, 32.1548, 0.394043, 32.1548, 0.394043, 9.71661, 31.8745, 9.71661 )

[sub_resource type="ConvexPolygonShape2D" id=14]
points = PoolVector2Array( 31.9641, 31.9873, 0.148773, 31.9873, 0.148773, 9.88406, 31.9641, 9.88406 )

[sub_resource type="ConvexPolygonShape2D" id=15]
points = PoolVector2Array( 32.1143, 32.3222, -0.0359192, 32.3222, -0.0359192, 10.219, 32.1143, 10.219 )

[sub_resource type="ConvexPolygonShape2D" id=16]
points = PoolVector2Array( 32.3335, 64.6399, 9.89532, 64.6399, 9.89532, 32.1548, 32.3335, 32.1548 )

[sub_resource type="ConvexPolygonShape2D" id=17]
points = PoolVector2Array( 31.9986, 32.1548, 9.89532, 32.1548, 9.89532, 11.0562, 31.9986, 11.0562 )

[sub_resource type="ConvexPolygonShape2D" id=18]
points = PoolVector2Array( 31.9986, 31.9528, 9.56042, 31.9528, 9.56042, 0.137543, 31.9986, 0.137543 )

[sub_resource type="ConvexPolygonShape2D" id=19]
points = PoolVector2Array( 31.9986, 31.9356, 9.22552, 31.9356, 9.22552, 0.45517, 31.9986, 0.45517 )

[sub_resource type="ConvexPolygonShape2D" id=20]
points = PoolVector2Array( 31.9986, 23.0435, 9.22552, 23.0435, 9.22552, 0.270477, 31.9986, 0.270477 )

[sub_resource type="ConvexPolygonShape2D" id=21]
points = PoolVector2Array( 31.8139, 23.0435, -0.00143433, 23.0435, -0.00143433, -0.0644226, 31.8139, -0.0644226 )

[sub_resource type="ConvexPolygonShape2D" id=22]
points = PoolVector2Array( 31.9641, 23.0435, -0.186127, 23.0435, -0.186127, -0.399323, 31.9641, -0.399323 )

[sub_resource type="ConvexPolygonShape2D" id=23]
points = PoolVector2Array( 31.7794, 23.0435, -0.0359192, 23.0435, -0.0359192, -0.734222, 31.7794, -0.734222 )

[sub_resource type="ConvexPolygonShape2D" id=24]
points = PoolVector2Array( 19.8733, 22.5412, 0.114288, 22.5412, 0.114288, -0.231873, 19.8733, -0.231873 )

[sub_resource type="ConvexPolygonShape2D" id=25]
points = PoolVector2Array( 19.5384, 31.4332, -0.220612, 31.4332, -0.220612, 0.28772, 19.5384, 0.28772 )

[sub_resource type="ConvexPolygonShape2D" id=26]
points = PoolVector2Array( 19.8733, 32, 0.114288, 32, 0.114288, 0, 19.8733, 0 )

[sub_resource type="ConvexPolygonShape2D" id=27]
points = PoolVector2Array( 19.5384, 32, 0, 32, 0, 0.657135, 19.5384, 0.657135 )

[sub_resource type="ConvexPolygonShape2D" id=28]
points = PoolVector2Array( 19.5384, 32, 0, 32, 0, 10.3864, 19.5384, 10.3864 )

[sub_resource type="ConvexPolygonShape2D" id=29]
points = PoolVector2Array( 0, 0, 32, 0, 32, 32, 0, 32 )

[sub_resource type="ConvexPolygonShape2D" id=30]
points = PoolVector2Array( 0, 0, 32, 0, 32, 32, 0, 32 )

[sub_resource type="ConvexPolygonShape2D" id=31]
points = PoolVector2Array( 0, 0, 32, 0, 32, 32, 0, 32 )

[sub_resource type="ConvexPolygonShape2D" id=32]
points = PoolVector2Array( 0, 0, 32, 0, 32, 32, 0, 32 )

[sub_resource type="ConvexPolygonShape2D" id=33]
points = PoolVector2Array( 0, 0, 32, 0, 32, 32, 0, 32 )

[sub_resource type="ConvexPolygonShape2D" id=34]
points = PoolVector2Array( 0, 0, 32, 0, 32, 32, 0, 32 )

[sub_resource type="ConvexPolygonShape2D" id=35]
points = PoolVector2Array( 0, 0, 32, 0, 32, 32, 0, 32 )

[sub_resource type="ConvexPolygonShape2D" id=36]
points = PoolVector2Array( 0, 0, 32, 0, 32, 32, 0, 32 )

[sub_resource type="ConvexPolygonShape2D" id=37]
points = PoolVector2Array( 0, 0, 32, 0, 32, 32, 0, 32 )

[sub_resource type="ConvexPolygonShape2D" id=38]
points = PoolVector2Array( 22.5, 104.889, 24.1667, 99.8889, 30.8333, 76.5555, 42.5, 61.5555, 82.5, 53.2222, 115.833, 52.3889, 150, 57.3889, 174.167, 65.7222, 192.5, 80.7222, 203.333, 99.0555, 205.833, 108.222, 205.833, 111.556, 20.8333, 111.556 )

[sub_resource type="ConvexPolygonShape2D" id=39]
points = PoolVector2Array( 8.33331, 42.5555, 14.1667, 40.0555, 17.5, 37.5555, 20.8333, 34.2222, 25, 34.2222, 29.1667, 35.0555, 37.5, 38.3889, 43.3333, 45.8889, 45, 54.2222, 25, 64.2222, 8.33331, 50.8889, 5.83331, 49.2222 )

[sub_resource type="TileSet" id=40]
0/name = "First Tile"
0/texture = ExtResource( 2 )
0/tex_offset = Vector2( 0, 0 )
0/modulate = Color( 1, 1, 1, 1 )
0/region = Rect2( 5, 3, 163, 165 )
0/tile_mode = 0
0/occluder_offset = Vector2( 0, 0 )
0/navigation_offset = Vector2( 0, 0 )
0/shape_offset = Vector2( 0, 0 )
0/shape_transform = Transform2D( 1, 0, 0, 1, 0, 0 )
0/shape = SubResource( 1 )
0/shape_one_way = false
0/shape_one_way_margin = 1.0
0/shapes = [ {
"autotile_coord": Vector2( 0, 0 ),
"one_way": false,
"one_way_margin": 1.0,
"shape": SubResource( 1 ),
"shape_transform": Transform2D( 1, 0, 0, 1, 0, 0 )
} ]
0/z_index = 100
1/name = "First Tile Set.png 1"
1/texture = ExtResource( 2 )
1/tex_offset = Vector2( 0, 0 )
1/modulate = Color( 1, 1, 1, 1 )
1/region = Rect2( 177, 5, 47, 158 )
1/tile_mode = 0
1/occluder_offset = Vector2( 0, 0 )
1/navigation_offset = Vector2( 0, 0 )
1/shape_offset = Vector2( 0, 0 )
1/shape_transform = Transform2D( 1, 0, 0, 1, 0, 0 )
1/shape = SubResource( 2 )
1/shape_one_way = false
1/shape_one_way_margin = 1.0
1/shapes = [ {
"autotile_coord": Vector2( 0, 0 ),
"one_way": false,
"one_way_margin": 1.0,
"shape": SubResource( 2 ),
"shape_transform": Transform2D( 1, 0, 0, 1, 0, 0 )
} ]
1/z_index = 100
2/name = "First Tile Set.png 2"
2/texture = ExtResource( 2 )
2/tex_offset = Vector2( 0, 0 )
2/modulate = Color( 1, 1, 1, 1 )
2/region = Rect2( 28, 174, 117, 48 )
2/tile_mode = 0
2/occluder_offset = Vector2( 0, 0 )
2/navigation_offset = Vector2( 0, 0 )
2/shape_offset = Vector2( 0, 0 )
2/shape_transform = Transform2D( 1, 0, 0, 1, 0, 0 )
2/shape = SubResource( 8 )
2/shape_one_way = false
2/shape_one_way_margin = 1.0
2/shapes = [ {
"autotile_coord": Vector2( 0, 0 ),
"one_way": false,
"one_way_margin": 1.0,
"shape": SubResource( 8 ),
"shape_transform": Transform2D( 1, 0, 0, 1, 0, 0 )
} ]
2/z_index = 100
3/name = "First Tile Set.png 3"
3/texture = ExtResource( 2 )
3/tex_offset = Vector2( 0, 0 )
3/modulate = Color( 1, 1, 1, 1 )
3/region = Rect2( 173, 176, 54, 44 )
3/tile_mode = 0
3/occluder_offset = Vector2( 0, 0 )
3/navigation_offset = Vector2( 0, 0 )
3/shape_offset = Vector2( 0, 0 )
3/shape_transform = Transform2D( 1, 0, 0, 1, 0, 0 )
3/shape = SubResource( 9 )
3/shape_one_way = false
3/shape_one_way_margin = 0.0
3/shapes = [ {
"autotile_coord": Vector2( 0, 0 ),
"one_way": false,
"one_way_margin": 0.0,
"shape": SubResource( 9 ),
"shape_transform": Transform2D( 1, 0, 0, 1, 0, 0 )
} ]
3/z_index = 100
4/name = "First Tile Set.png 4"
4/texture = ExtResource( 2 )
4/tex_offset = Vector2( 0, 0 )
4/modulate = Color( 1, 1, 1, 1 )
4/region = Rect2( 228, 1, 115, 113 )
4/tile_mode = 0
4/occluder_offset = Vector2( 0, 0 )
4/navigation_offset = Vector2( 0, 0 )
4/shape_offset = Vector2( 0, 0 )
4/shape_transform = Transform2D( 1, 0, 0, 1, 0, 0 )
4/shape = SubResource( 10 )
4/shape_one_way = false
4/shape_one_way_margin = 1.0
4/shapes = [ {
"autotile_coord": Vector2( 0, 0 ),
"one_way": false,
"one_way_margin": 1.0,
"shape": SubResource( 10 ),
"shape_transform": Transform2D( 1, 0, 0, 1, 0, 0 )
} ]
4/z_index = 100
5/name = "First Tile Set.png 5"
5/texture = ExtResource( 2 )
5/tex_offset = Vector2( 0, 0 )
5/modulate = Color( 1, 1, 1, 1 )
5/region = Rect2( 113, 234, 118, 103 )
5/tile_mode = 0
5/occluder_offset = Vector2( 0, 0 )
5/navigation_offset = Vector2( 0, 0 )
5/shape_offset = Vector2( 0, 0 )
5/shape_transform = Transform2D( 1, 0, 0, 1, 0, 0 )
5/shape = SubResource( 11 )
5/shape_one_way = false
5/shape_one_way_margin = 1.0
5/shapes = [ {
"autotile_coord": Vector2( 0, 0 ),
"one_way": false,
"one_way_margin": 1.0,
"shape": SubResource( 11 ),
"shape_transform": Transform2D( 1, 0, 0, 1, 0, 0 )
} ]
5/z_index = 100
6/name = "First Tile Set.png 6"
6/texture = ExtResource( 2 )
6/tex_offset = Vector2( 0, 0 )
6/modulate = Color( 1, 1, 1, 1 )
6/region = Rect2( 5, 231, 104, 111 )
6/tile_mode = 0
6/occluder_offset = Vector2( 0, 0 )
6/navigation_offset = Vector2( 0, 0 )
6/shape_offset = Vector2( 0, 0 )
6/shape_transform = Transform2D( 1, 0, 0, 1, 0, 0 )
6/shape = SubResource( 12 )
6/shape_one_way = false
6/shape_one_way_margin = 1.0
6/shapes = [ {
"autotile_coord": Vector2( 0, 0 ),
"one_way": false,
"one_way_margin": 1.0,
"shape": SubResource( 12 ),
"shape_transform": Transform2D( 1, 0, 0, 1, 0, 0 )
} ]
6/z_index = 100
7/name = "First Tile Set.png 7"
7/texture = ExtResource( 2 )
7/tex_offset = Vector2( 0, 0 )
7/modulate = Color( 1, 1, 1, 1 )
7/region = Rect2( 235, 231, 161, 160 )
7/tile_mode = 2
7/autotile/icon_coordinate = Vector2( 0, 0 )
7/autotile/tile_size = Vector2( 32, 32 )
7/autotile/spacing = 0
7/autotile/occluder_map = [  ]
7/autotile/navpoly_map = [  ]
7/autotile/priority_map = [  ]
7/autotile/z_index_map = [  ]
7/occluder_offset = Vector2( 0, 0 )
7/navigation_offset = Vector2( 0, 0 )
7/shape_offset = Vector2( 0, 0 )
7/shape_transform = Transform2D( 1, 0, 0, 1, 0, 0 )
7/shape = SubResource( 13 )
7/shape_one_way = false
7/shape_one_way_margin = 1.0
7/shapes = [ {
"autotile_coord": Vector2( 1, 0 ),
"one_way": false,
"one_way_margin": 1.0,
"shape": SubResource( 13 ),
"shape_transform": Transform2D( 1, 0, 0, 1, 0, 0 )
}, {
"autotile_coord": Vector2( 2, 0 ),
"one_way": false,
"one_way_margin": 1.0,
"shape": SubResource( 14 ),
"shape_transform": Transform2D( 1, 0, 0, 1, 0, 0 )
}, {
"autotile_coord": Vector2( 3, 0 ),
"one_way": false,
"one_way_margin": 1.0,
"shape": SubResource( 15 ),
"shape_transform": Transform2D( 1, 0, 0, 1, 0, 0 )
}, {
"autotile_coord": Vector2( 0, 0 ),
"one_way": false,
"one_way_margin": 1.0,
"shape": SubResource( 16 ),
"shape_transform": Transform2D( 1, 0, 0, 1, 0, 0 )
}, {
"autotile_coord": Vector2( 0, 0 ),
"one_way": false,
"one_way_margin": 1.0,
"shape": SubResource( 17 ),
"shape_transform": Transform2D( 1, 0, 0, 1, 0, 0 )
}, {
"autotile_coord": Vector2( 0, 2 ),
"one_way": false,
"one_way_margin": 1.0,
"shape": SubResource( 18 ),
"shape_transform": Transform2D( 1, 0, 0, 1, 0, 0 )
}, {
"autotile_coord": Vector2( 0, 3 ),
"one_way": false,
"one_way_margin": 1.0,
"shape": SubResource( 19 ),
"shape_transform": Transform2D( 1, 0, 0, 1, 0, 0 )
}, {
"autotile_coord": Vector2( 0, 4 ),
"one_way": false,
"one_way_margin": 1.0,
"shape": SubResource( 20 ),
"shape_transform": Transform2D( 1, 0, 0, 1, 0, 0 )
}, {
"autotile_coord": Vector2( 1, 4 ),
"one_way": false,
"one_way_margin": 1.0,
"shape": SubResource( 21 ),
"shape_transform": Transform2D( 1, 0, 0, 1, 0, 0 )
}, {
"autotile_coord": Vector2( 2, 4 ),
"one_way": false,
"one_way_margin": 1.0,
"shape": SubResource( 22 ),
"shape_transform": Transform2D( 1, 0, 0, 1, 0, 0 )
}, {
"autotile_coord": Vector2( 3, 4 ),
"one_way": false,
"one_way_margin": 1.0,
"shape": SubResource( 23 ),
"shape_transform": Transform2D( 1, 0, 0, 1, 0, 0 )
}, {
"autotile_coord": Vector2( 4, 4 ),
"one_way": false,
"one_way_margin": 1.0,
"shape": SubResource( 24 ),
"shape_transform": Transform2D( 1, 0, 0, 1, 0, 0 )
}, {
"autotile_coord": Vector2( 4, 3 ),
"one_way": false,
"one_way_margin": 1.0,
"shape": SubResource( 25 ),
"shape_transform": Transform2D( 1, 0, 0, 1, 0, 0 )
}, {
"autotile_coord": Vector2( 4, 2 ),
"one_way": false,
"one_way_margin": 1.0,
"shape": SubResource( 26 ),
"shape_transform": Transform2D( 1, 0, 0, 1, 0, 0 )
}, {
"autotile_coord": Vector2( 4, 1 ),
"one_way": false,
"one_way_margin": 1.0,
"shape": SubResource( 27 ),
"shape_transform": Transform2D( 1, 0, 0, 1, 0, 0 )
}, {
"autotile_coord": Vector2( 4, 0 ),
"one_way": false,
"one_way_margin": 1.0,
"shape": SubResource( 28 ),
"shape_transform": Transform2D( 1, 0, 0, 1, 0, 0 )
}, {
"autotile_coord": Vector2( 2, 1 ),
"one_way": false,
"one_way_margin": 1.0,
"shape": SubResource( 29 ),
"shape_transform": Transform2D( 1, 0, 0, 1, 0, 0 )
}, {
"autotile_coord": Vector2( 1, 1 ),
"one_way": false,
"one_way_margin": 1.0,
"shape": SubResource( 30 ),
"shape_transform": Transform2D( 1, 0, 0, 1, 0, 0 )
}, {
"autotile_coord": Vector2( 1, 2 ),
"one_way": false,
"one_way_margin": 1.0,
"shape": SubResource( 31 ),
"shape_transform": Transform2D( 1, 0, 0, 1, 0, 0 )
}, {
"autotile_coord": Vector2( 3, 1 ),
"one_way": false,
"one_way_margin": 1.0,
"shape": SubResource( 32 ),
"shape_transform": Transform2D( 1, 0, 0, 1, 0, 0 )
}, {
"autotile_coord": Vector2( 2, 2 ),
"one_way": false,
"one_way_margin": 1.0,
"shape": SubResource( 33 ),
"shape_transform": Transform2D( 1, 0, 0, 1, 0, 0 )
}, {
"autotile_coord": Vector2( 3, 2 ),
"one_way": false,
"one_way_margin": 1.0,
"shape": SubResource( 34 ),
"shape_transform": Transform2D( 1, 0, 0, 1, 0, 0 )
}, {
"autotile_coord": Vector2( 1, 3 ),
"one_way": false,
"one_way_margin": 1.0,
"shape": SubResource( 35 ),
"shape_transform": Transform2D( 1, 0, 0, 1, 0, 0 )
}, {
"autotile_coord": Vector2( 2, 3 ),
"one_way": false,
"one_way_margin": 1.0,
"shape": SubResource( 36 ),
"shape_transform": Transform2D( 1, 0, 0, 1, 0, 0 )
}, {
"autotile_coord": Vector2( 3, 3 ),
"one_way": false,
"one_way_margin": 1.0,
"shape": SubResource( 37 ),
"shape_transform": Transform2D( 1, 0, 0, 1, 0, 0 )
} ]
7/z_index = 100
8/name = "Resized Mossy - Hills.png 8"
8/texture = ExtResource( 5 )
8/tex_offset = Vector2( 0, 0 )
8/modulate = Color( 1, 1, 1, 1 )
8/region = Rect2( 135, -6, 225, 111 )
8/tile_mode = 0
8/occluder_offset = Vector2( 0, 0 )
8/navigation_offset = Vector2( 0, 0 )
8/shape_offset = Vector2( 0, 0 )
8/shape_transform = Transform2D( 1, 0, 0, 1, 0, 0 )
8/shape = SubResource( 38 )
8/shape_one_way = false
8/shape_one_way_margin = 1.0
8/shapes = [ {
"autotile_coord": Vector2( 0, 0 ),
"one_way": false,
"one_way_margin": 1.0,
"shape": SubResource( 38 ),
"shape_transform": Transform2D( 1, 0, 0, 1, 0, 0 )
} ]
8/z_index = 0
9/name = "Resized Mossy - Hills.png 9"
9/texture = ExtResource( 5 )
9/tex_offset = Vector2( 0, 0 )
9/modulate = Color( 1, 1, 1, 1 )
9/region = Rect2( 25, 13, 58, 67 )
9/tile_mode = 0
9/occluder_offset = Vector2( 0, 0 )
9/navigation_offset = Vector2( 0, 0 )
9/shape_offset = Vector2( 0, 0 )
9/shape_transform = Transform2D( 1, 0, 0, 1, 0, 0 )
9/shape = SubResource( 39 )
9/shape_one_way = false
9/shape_one_way_margin = 1.0
9/shapes = [ {
"autotile_coord": Vector2( 0, 0 ),
"one_way": false,
"one_way_margin": 1.0,
"shape": SubResource( 39 ),
"shape_transform": Transform2D( 1, 0, 0, 1, 0, 0 )
} ]
9/z_index = 0
10/name = "Resized Mossy - Hills.png 10"
10/texture = ExtResource( 5 )
10/tex_offset = Vector2( 0, 0 )
10/modulate = Color( 1, 1, 1, 1 )
10/region = Rect2( 15, 108, 74, 78 )
10/tile_mode = 0
10/occluder_offset = Vector2( 0, 0 )
10/navigation_offset = Vector2( 0, 0 )
10/shape_offset = Vector2( 0, 0 )
10/shape_transform = Transform2D( 1, 0, 0, 1, 0, 0 )
10/shape = SubResource( 3 )
10/shape_one_way = false
10/shape_one_way_margin = 1.0
10/shapes = [ {
"autotile_coord": Vector2( 0, 0 ),
"one_way": false,
"one_way_margin": 1.0,
"shape": SubResource( 3 ),
"shape_transform": Transform2D( 1, 0, 0, 1, 0, 0 )
} ]
10/z_index = 0
11/name = "Resized Mossy - Hills.png 11"
11/texture = ExtResource( 5 )
11/tex_offset = Vector2( 0, 0 )
11/modulate = Color( 1, 1, 1, 1 )
11/region = Rect2( 131, 117, 242, 172 )
11/tile_mode = 0
11/occluder_offset = Vector2( 0, 0 )
11/navigation_offset = Vector2( 0, 0 )
11/shape_offset = Vector2( 0, 0 )
11/shape_transform = Transform2D( 1, 0, 0, 1, 0, 0 )
11/shape = SubResource( 4 )
11/shape_one_way = false
11/shape_one_way_margin = 1.0
11/shapes = [ {
"autotile_coord": Vector2( 0, 0 ),
"one_way": false,
"one_way_margin": 1.0,
"shape": SubResource( 4 ),
"shape_transform": Transform2D( 1, 0, 0, 1, 0, 0 )
} ]
11/z_index = 0
12/name = "Resized Mossy - Hills.png 12"
12/texture = ExtResource( 5 )
12/tex_offset = Vector2( 0, 0 )
12/modulate = Color( 1, 1, 1, 1 )
12/region = Rect2( 27, 212, 55, 68 )
12/tile_mode = 0
12/occluder_offset = Vector2( 0, 0 )
12/navigation_offset = Vector2( 0, 0 )
12/shape_offset = Vector2( 0, 0 )
12/shape_transform = Transform2D( 1, 0, 0, 1, 0, 0 )
12/shape = SubResource( 5 )
12/shape_one_way = false
12/shape_one_way_margin = 100.0
12/shapes = [ {
"autotile_coord": Vector2( 0, 0 ),
"one_way": false,
"one_way_margin": 100.0,
"shape": SubResource( 5 ),
"shape_transform": Transform2D( 1, 0, 0, 1, 0, 0 )
} ]
12/z_index = 0
13/name = "Resized Mossy - Hills.png 13"
13/texture = ExtResource( 5 )
13/tex_offset = Vector2( 0, 0 )
13/modulate = Color( 1, 1, 1, 1 )
13/region = Rect2( 11, 292, 262, 94 )
13/tile_mode = 0
13/occluder_offset = Vector2( 0, 0 )
13/navigation_offset = Vector2( 0, 0 )
13/shape_offset = Vector2( 0, 0 )
13/shape_transform = Transform2D( 1, 0, 0, 1, 0, 0 )
13/shape = SubResource( 6 )
13/shape_one_way = false
13/shape_one_way_margin = 1.0
13/shapes = [ {
"autotile_coord": Vector2( 0, 0 ),
"one_way": false,
"one_way_margin": 1.0,
"shape": SubResource( 6 ),
"shape_transform": Transform2D( 1, 0, 0, 1, 0, 0 )
} ]
13/z_index = 0
14/name = "Resized Mossy - Hills.png 14"
14/texture = ExtResource( 5 )
14/tex_offset = Vector2( 0, 0 )
14/modulate = Color( 1, 1, 1, 1 )
14/region = Rect2( 286, 306, 99, 85 )
14/tile_mode = 0
14/occluder_offset = Vector2( 0, 0 )
14/navigation_offset = Vector2( 0, 0 )
14/shape_offset = Vector2( 0, 0 )
14/shape_transform = Transform2D( 1, 0, 0, 1, 0, 0 )
14/shape = SubResource( 7 )
14/shape_one_way = false
14/shape_one_way_margin = 10.0
14/shapes = [ {
"autotile_coord": Vector2( 0, 0 ),
"one_way": false,
"one_way_margin": 10.0,
"shape": SubResource( 7 ),
"shape_transform": Transform2D( 1, 0, 0, 1, 0, 0 )
} ]
14/z_index = 0

[node name="Stage" type="Node2D"]
script = ExtResource( 13 )

[node name="Player" parent="." instance=ExtResource( 3 )]
position = Vector2( -24.9244, 298.872 )
speed = 300
jump_limit = 2

[node name="Light" type="Light2D" parent="Player"]
position = Vector2( 253.214, 204.978 )
scale = Vector2( 0.645584, 0.63795 )
texture = ExtResource( 6 )
mode = 3
range_layer_min = -100

[node name="LightLarger" type="Light2D" parent="Player"]
position = Vector2( 244.552, 248.438 )
scale = Vector2( 1.28915, 1.25605 )
enabled = false
texture = ExtResource( 6 )
mode = 3
range_layer_min = -100

[node name="Dark" type="Light2D" parent="Player"]
position = Vector2( 252.611, 199.485 )
scale = Vector2( 0.649711, 0.631442 )
enabled = false
texture = ExtResource( 1 )
mode = 3
range_layer_min = -100

[node name="Timer" type="Timer" parent="Player"]
script = ExtResource( 7 )

[node name="LightLargerTimer" type="Timer" parent="Player"]
script = ExtResource( 7 )

[node name="LightLargerCooldown" type="Timer" parent="Player"]
script = ExtResource( 7 )

[node name="TeleportTimer" type="Timer" parent="Player"]
script = ExtResource( 11 )

[node name="AudioStreamPlayer2D" type="AudioStreamPlayer2D" parent="Player"]
position = Vector2( 24.9244, -298.872 )
stream = ExtResource( 15 )
volume_db = 15.0
autoplay = true

[node name="TileMap" type="TileMap" parent="."]
position = Vector2( -1, 1 )
z_index = 2
tile_set = SubResource( 40 )
cell_size = Vector2( 32, 32 )
format = 1
tile_data = PoolIntArray( -2162728, 6, 0, -2097192, 6, 0, -2031656, 6, 0, -1966120, 6, 0, -2031357, 6, 0, -1900584, 6, 0, -1965822, 6, 0, -1835048, 6, 0, -1900286, 6, 0, -1769512, 6, 0, -1834750, 6, 0, -1703976, 6, 0, -1769214, 6, 0, -1638440, 6, 0, -1703678, 6, 0, -1572904, 6, 0, -1638142, 6, 0, -1507368, 6, 0, -1572606, 6, 0, -1441832, 6, 0, -1507070, 6, 0, -1376296, 6, 0, -1441534, 6, 0, -1310760, 6, 0, -1375998, 6, 0, -1245224, 6, 0, -1310462, 6, 0, -1179688, 6, 0, -1244926, 6, 0, -1114152, 6, 0, -1179390, 6, 0, -1048616, 6, 0, -1114041, 11, 0, -1113854, 6, 0, -983080, 6, 0, -1048572, 5, 0, -1048571, 5, 0, -1048570, 5, 0, -1048569, 5, 0, -1048568, 5, 0, -1048567, 5, 0, -1048566, 5, 0, -1048565, 5, 0, -1048564, 5, 0, -1048563, 5, 0, -1048562, 5, 0, -1048561, 5, 0, -1048560, 5, 0, -1048559, 5, 0, -1048558, 5, 0, -1048557, 5, 0, -1048556, 5, 0, -1048555, 5, 0, -1048554, 5, 0, -1048553, 5, 0, -1048552, 5, 0, -1048551, 5, 0, -1048550, 5, 0, -1048549, 5, 0, -1048548, 5, 0, -1048547, 5, 0, -1048546, 5, 0, -1048545, 5, 0, -1048544, 5, 0, -1048543, 5, 0, -1048542, 5, 0, -1048541, 5, 0, -1048540, 5, 0, -1048539, 5, 0, -1048538, 5, 0, -1048537, 5, 0, -1048536, 5, 0, -1048535, 5, 0, -1048534, 5, 0, -1048533, 5, 0, -1048532, 5, 0, -1048531, 5, 0, -1048530, 5, 0, -1048529, 5, 0, -1048528, 5, 0, -1048527, 5, 0, -1048526, 5, 0, -1048525, 5, 0, -1048524, 5, 0, -1048523, 5, 0, -1048522, 5, 0, -1048521, 5, 0, -1048520, 5, 0, -1048519, 5, 0, -1048518, 5, 0, -1048517, 5, 0, -1048516, 5, 0, -1048515, 5, 0, -1048514, 5, 0, -1048513, 5, 0, -1048512, 5, 0, -1048318, 6, 0, -917544, 6, 0, -982782, 6, 0, -852008, 6, 0, -917246, 6, 0, -786472, 6, 0, -786435, 0, 0, -851710, 6, 0, -720936, 6, 0, -786174, 6, 0, -655400, 6, 0, -720817, 11, 0, -720638, 6, 0, -589864, 6, 0, -655102, 6, 0, -524328, 6, 0, -589566, 6, 0, -458792, 6, 0, -458762, 0, 0, -524214, 10, 0, -524030, 6, 0, -393256, 6, 0, -458494, 6, 0, -327720, 6, 0, -327685, 10, 0, -393185, 10, 0, -393181, 10, 0, -393176, 10, 0, -393172, 10, 0, -393168, 10, 0, -393162, 10, 0, -393157, 10, 0, -393152, 10, 0, -393147, 10, 0, -393128, 11, 0, -392958, 6, 0, -262184, 6, 0, -327422, 6, 0, -196648, 6, 0, -196610, 10, 0, -262116, 10, 0, -261886, 6, 0, -131112, 6, 0, -131088, 0, 0, -196350, 6, 0, -65576, 6, 0, -131071, 10, 0, -131067, 10, 0, -131063, 10, 0, -131059, 10, 0, -131055, 10, 0, -131051, 10, 0, -131047, 10, 0, -130814, 6, 0, -40, 6, 0, -65278, 6, 0, 65496, 6, 0, 97, 1073741824, 0, 105, 10, 0, 109, 10, 0, 114, 10, 0, 119, 10, 0, 124, 10, 0, 129, 10, 0, 134, 10, 0, 140, 10, 0, 146, 10, 0, 151, 10, 0, 157, 10, 0, 162, 10, 0, 167, 10, 0, 172, 10, 0, 177, 10, 0, 182, 10, 0, 187, 10, 0, 258, 6, 0, 131032, 6, 0, 65794, 6, 0, 196568, 6, 0, 196571, 0, 0, 196578, 0, 0, 196586, 0, 0, 131263, 10, 0, 131330, 6, 0, 196866, 6, 0, 327640, 6, 0, 262242, 1073741831, 131074, 262243, 1073741831, 131074, 262244, 1073741831, 131074, 262402, 6, 0, 393176, 6, 0, 327777, 1073741824, 0, 327778, 1073741831, 131074, 327779, 1073741831, 131074, 327780, 1073741831, 131074, 327874, 10, 0, 327938, 6, 0, 458712, 6, 0, 393314, 1073741831, 131074, 393315, 1073741831, 131074, 393474, 6, 0, 524248, 6, 0, 459010, 6, 0, 589784, 6, 0, 524546, 6, 0, 655320, 6, 0, 589922, 1073741831, 131074, 589923, 1073741831, 131074, 589924, 1073741831, 131074, 590082, 6, 0, 720856, 6, 0, 655382, 0, 0, 655388, 3, 0, 655391, 3, 0, 655394, 3, 0, 655397, 3, 0, 655457, 1073741824, 0, 655458, 1073741831, 131074, 655459, 1073741831, 131074, 655460, 1073741831, 131074, 655558, 10, 0, 655618, 6, 0, 786392, 6, 0, 720915, 3, 0, 720936, 11, 0, 720995, 1073741831, 131074, 721154, 6, 0, 851928, 6, 0, 786448, 3, 0, 786531, 1073741831, 131074, 786532, 1073741831, 131074, 786626, 10, 0, 786690, 6, 0, 917464, 6, 0, 851981, 3, 0, 852067, 1073741831, 131074, 852068, 1073741831, 131074, 852226, 6, 0, 983000, 6, 0, 917514, 3, 0, 917541, 10, 0, 917553, 10, 0, 917602, 1073741831, 131074, 917603, 1073741831, 131074, 917604, 1073741831, 131074, 917657, 11, 0, 917668, 11, 0, 917679, 11, 0, 917689, 11, 0, 917762, 6, 0, 1048536, 6, 0, 983137, 1073741824, 0, 983138, 1073741831, 131074, 983139, 1073741831, 131074, 983140, 1073741831, 131074, 983167, 10, 0, 983172, 7, 0, 983173, 5, 0, 983176, 5, 0, 983179, 5, 0, 983182, 5, 0, 983185, 5, 0, 983298, 6, 0, 1114072, 6, 0, 1114109, 14, 0, 1048576, 7, 0, 1048577, 7, 1, 1048578, 7, 1, 1048579, 7, 1, 1048580, 7, 1, 1048581, 7, 1, 1048582, 7, 1, 1048583, 7, 1, 1048584, 7, 4, 1048610, 10, 0, 1048628, 10, 0, 1048708, 7, 262144, 1048709, 7, 131074, 1048712, 7, 131074, 1048834, 6, 0, 1179608, 6, 0, 1114112, 7, 65536, 1114113, 7, 131074, 1114114, 7, 131074, 1114115, 7, 131074, 1114116, 7, 131074, 1114117, 7, 131074, 1114118, 7, 131074, 1114119, 7, 131074, 1114120, 7, 65540, 1114245, 7, 131072, 1114246, 7, 131074, 1114247, 7, 131074, 1114248, 7, 131074, 1114370, 6, 0, 1245144, 6, 0, 1245178, 14, 0, 1179648, 7, 65536, 1179649, 7, 131074, 1179650, 7, 131074, 1179651, 7, 131074, 1179652, 7, 131074, 1179653, 7, 131074, 1179654, 7, 131074, 1179655, 7, 131074, 1179656, 7, 65540, 1179679, 10, 0, 1179703, 10, 0, 1179781, 6, 0, 1179782, 7, 131074, 1179906, 6, 0, 1310680, 6, 0, 1245442, 6, 0, 1376216, 6, 0, 1376247, 14, 0, 1310748, 10, 0, 1310777, 8, 0, 1310783, 8, 0, 1310788, 8, 0, 1310792, 8, 0, 1310805, 1073741829, 0, 1310808, 1073741829, 0, 1310811, 1073741829, 0, 1310814, 1073741829, 0, 1310817, 1073741829, 0, 1310820, 1073741829, 0, 1310823, 1073741829, 0, 1310826, 1073741829, 0, 1310829, 1073741829, 0, 1310832, 1073741829, 0, 1310835, 1073741829, 0, 1310838, 1073741829, 0, 1310843, 10, 0, 1310978, 6, 0, 1441752, 6, 0, 1376389, 6, 0, 1376514, 6, 0, 1507288, 6, 0, 1507316, 14, 0, 1441812, 13, 0, 1441922, 10, 0, 1442050, 6, 0, 1572824, 6, 0, 1507363, 9, 0, 1507365, 9, 0, 1507586, 6, 0, 1638360, 6, 0, 1638385, 14, 0, 1572880, 14, 0, 1572897, 9, 0, 1572903, 9, 0, 1572997, 6, 0, 1573122, 6, 0, 1703896, 6, 0, 1638431, 9, 0, 1638441, 9, 0, 1638526, 10, 0, 1638658, 6, 0, 1769432, 6, 0, 1769454, 14, 0, 1703947, 14, 0, 1703965, 9, 0, 1703979, 9, 0, 1704194, 6, 0, 1834968, 6, 0, 1835001, 9, 0, 1769499, 9, 0, 1769517, 9, 0, 1769537, 9, 0, 1769539, 7, 0, 1769540, 5, 0, 1769543, 5, 0, 1769546, 5, 0, 1769549, 5, 0, 1769551, 5, 0, 1769554, 5, 0, 1769557, 5, 0, 1769560, 5, 0, 1769563, 5, 0, 1769566, 5, 0, 1769569, 5, 0, 1769572, 5, 0, 1769575, 5, 0, 1769578, 5, 0, 1769581, 5, 0, 1769584, 5, 0, 1769587, 1073741829, 0, 1769590, 1073741829, 0, 1769593, 5, 0, 1769596, 5, 0, 1769599, 5, 0, 1769602, 5, 0, 1769605, 7, 131074, 1769606, 7, 131074, 1769607, 7, 131076, 1769730, 6, 0, 1900504, 6, 0, 1900523, 14, 0, 1900539, 9, 0, 1835015, 14, 0, 1835055, 9, 0, 1835071, 9, 0, 1835075, 7, 65536, 1835141, 7, 131074, 1835142, 7, 131074, 1835143, 7, 131076, 1835266, 6, 0, 1966040, 6, 0, 1966077, 9, 0, 1900593, 9, 0, 1900605, 9, 0, 1900611, 7, 262144, 1900623, 1073741833, 0, 1900626, 1073741833, 0, 1900628, 1073741833, 0, 1900631, 1073741833, 0, 1900634, 1073741833, 0, 1900645, 1073741833, 0, 1900648, 1073741833, 0, 1900659, 1073741836, 0, 1900677, 7, 262145, 1900678, 7, 262145, 1900679, 7, 262148, 1900802, 6, 0, 2031576, 6, 0, 2031592, 14, 0, 2031615, 9, 0, 1966131, 9, 0, 1966139, 9, 0, 1966172, 1073741837, 0, 1966186, 1073741837, 0, 1966198, 6, 0, 1966338, 6, 0, 2097112, 6, 0, 2031617, 11, 0, 2031734, 6, 0, 2031874, 6, 0, 2162648, 6, 0, 2162661, 14, 0, 2097173, 7, 0, 2097174, 5, 0, 2097177, 5, 0, 2097180, 5, 0, 2097183, 5, 0, 2097186, 5, 0, 2097189, 5, 0, 2097192, 7, 4, 2097225, 10, 0, 2097270, 6, 0, 2097410, 6, 0, 2228184, 6, 0, 2162709, 7, 131072, 2162728, 7, 65540, 2162740, 13, 0, 2162765, 10, 0, 2162773, 1073741835, 0, 2162787, 1073741835, 0, 2162806, 6, 0, 2162946, 6, 0, 2293720, 6, 0, 2293730, 14, 0, 2228245, 7, 262144, 2228264, 7, 262148, 2228284, 536870922, 0, 2228287, 536870922, 0, 2228290, 536870922, 0, 2228293, 10, 0, 2228304, 6, 0, 2228342, 6, 0, 2228482, 6, 0, 2359256, 6, 0, 2293769, 14, 0, 2293810, 12, 0, 2293840, 6, 0, 2293852, 1073741835, 0, 2293866, 1073741835, 0, 2293878, 6, 0, 2294018, 6, 0, 2424792, 6, 0, 2359344, 12, 0, 2359368, 10, 0, 2359376, 6, 0, 2359414, 6, 0, 2359554, 6, 0, 2490328, 6, 0, 2424845, 14, 0, 2424878, 12, 0, 2424912, 6, 0, 2424950, 6, 0, 2425090, 6, 0, 2555864, 6, 0, 2555868, 14, 0, 2490412, 12, 0, 2490443, 10, 0, 2490448, 6, 0, 2490482, 1073741827, 0, 2490486, 6, 0, 2490626, 6, 0, 2621400, 6, 0, 2555921, 14, 0, 2555946, 12, 0, 2555984, 6, 0, 2556022, 6, 0, 2556162, 6, 0, 2686936, 6, 0, 2686943, 14, 0, 2621480, 12, 0, 2621518, 10, 0, 2621520, 6, 0, 2621557, 1073741827, 0, 2621558, 6, 0, 2621698, 6, 0, 2752472, 6, 0, 2687056, 6, 0, 2687234, 6, 0, 2818008, 6, 0, 2818018, 14, 0, 2752592, 1073741830, 0, 2752627, 1073741827, 0, 2752770, 6, 0, 2883544, 6, 0, 2818067, 5, 0, 2818070, 5, 0, 2818073, 5, 0, 2818076, 5, 0, 2818079, 5, 0, 2818082, 5, 0, 2818085, 5, 0, 2818128, 1073741830, 0, 2818306, 6, 0, 2949080, 6, 0, 2949093, 14, 0, 2883664, 1073741830, 0, 2883697, 1073741827, 0, 2883842, 6, 0, 3014616, 6, 0, 2949200, 1073741830, 0, 2949378, 6, 0, 3080152, 6, 0, 3080168, 14, 0, 3014736, 1073741829, 0, 3014739, 1073741829, 0, 3014740, 1073741829, 0, 3014742, 5, 0, 3014743, 5, 0, 3014744, 1073741829, 0, 3014745, 1073741829, 0, 3014746, 1073741829, 0, 3014747, 1073741829, 0, 3014748, 1073741829, 0, 3014749, 1073741829, 0, 3014750, 1073741829, 0, 3014751, 1073741829, 0, 3014752, 1073741829, 0, 3014753, 1073741829, 0, 3014754, 1073741829, 0, 3014755, 1073741829, 0, 3014756, 1073741829, 0, 3014757, 1073741829, 0, 3014758, 1073741829, 0, 3014759, 1073741829, 0, 3014760, 1073741829, 0, 3014761, 1073741829, 0, 3014762, 1073741829, 0, 3014763, 1073741829, 0, 3014764, 1073741829, 0, 3014765, 1073741829, 0, 3014766, 1073741829, 0, 3014914, 6, 0, 3145688, 6, 0, 3080450, 6, 0, 3211224, 6, 0, 3211243, 14, 0, 3145986, 6, 0, 3276760, 6, 0, 3211522, 6, 0, 3342296, 6, 0, 3342318, 14, 0, 3277058, 6, 0, 3407832, 6, 0, 3342594, 6, 0, 3473368, 6, 0, 3473393, 14, 0, 3408130, 6, 0, 3538904, 6, 0, 3473666, 6, 0, 3604440, 6, 0, 3604468, 14, 0, 3539202, 6, 0, 3669976, 6, 0, 3604738, 6, 0, 3735512, 6, 0, 3670274, 6, 0, 3801079, 5, 0, 3801082, 5, 0, 3801085, 5, 0, 3735552, 5, 0, 3735555, 5, 0, 3735558, 5, 0, 3735561, 5, 0, 3735564, 5, 0, 3735567, 5, 0, 3735570, 5, 0, 3735573, 5, 0, 3735576, 5, 0, 3735579, 5, 0, 3735582, 5, 0, 3735585, 5, 0, 3735588, 5, 0, 3735591, 5, 0, 3735594, 5, 0, 3735597, 5, 0, 3735600, 5, 0, 3735603, 5, 0, 3735606, 5, 0, 3735609, 5, 0, 3735612, 5, 0, 3735615, 5, 0, 3735618, 5, 0, 3735621, 5, 0, 3735624, 5, 0, 3735627, 5, 0, 3735630, 5, 0, 3735633, 5, 0, 3735636, 5, 0, 3735639, 5, 0, 3735642, 5, 0, 3735645, 5, 0, 3735648, 5, 0, 3735651, 5, 0, 3735654, 5, 0, 3735657, 5, 0, 3735660, 5, 0, 3735663, 5, 0, 3735666, 5, 0, 3735669, 5, 0, 3735672, 5, 0, 3735675, 5, 0, 3735678, 5, 0, 3735681, 5, 0, 3735684, 5, 0, 3735687, 5, 0, 3735690, 5, 0, 3735693, 5, 0, 3735696, 5, 0, 3735699, 5, 0, 3735702, 5, 0, 3735705, 5, 0, 3735708, 5, 0, 3735711, 5, 0, 3735714, 5, 0, 3735717, 5, 0, 3735720, 5, 0, 3735723, 5, 0, 3735726, 5, 0, 3735729, 5, 0, 3735732, 5, 0, 3735735, 5, 0, 3735738, 5, 0, 3735741, 5, 0, 3735744, 5, 0, 3735747, 5, 0, 3735750, 5, 0, 3735753, 5, 0, 3735756, 5, 0, 3735759, 5, 0, 3735762, 5, 0, 3735765, 5, 0, 3735768, 5, 0, 3735771, 5, 0, 3735774, 5, 0, 3735777, 5, 0, 3735780, 5, 0, 3735783, 5, 0, 3735786, 5, 0, 3735789, 5, 0, 3735792, 5, 0, 3735795, 5, 0, 3735798, 5, 0, 3735801, 5, 0, 3735804, 5, 0, 3735807, 5, 0, 3735810, 6, 0 )

[node name="ParallaxBackground" type="ParallaxBackground" parent="."]

[node name="ParallaxLayer" type="ParallaxLayer" parent="ParallaxBackground"]

[node name="Tosca" type="Sprite" parent="ParallaxBackground/ParallaxLayer"]
position = Vector2( 4243.84, 326.092 )
scale = Vector2( 57.9767, 35.5631 )
texture = ExtResource( 4 )

[node name="CanvasLayer" type="CanvasLayer" parent="."]

[node name="DarkExposureTimeLabel" type="Label" parent="CanvasLayer"]
margin_left = 10.2526
margin_top = 39.3665
margin_right = 288.253
margin_bottom = 67.3665
custom_fonts/font = ExtResource( 8 )
custom_colors/font_color = Color( 0.4, 0.929412, 0.941176, 1 )
text = "Dark Exposure Time: 0/4"
__meta__ = {
"_edit_use_anchors_": false
}

[node name="LivesLabel" type="Label" parent="CanvasLayer"]
margin_left = 10.545
margin_top = 12.7384
margin_right = 288.545
margin_bottom = 40.7384
custom_fonts/font = ExtResource( 8 )
custom_colors/font_color = Color( 0.4, 0.929412, 0.941176, 1 )
text = "Lives:"
__meta__ = {
"_edit_use_anchors_": false
}

[node name="TimeUntilRecoverLabel" type="Label" parent="CanvasLayer"]
margin_left = 9.7937
margin_top = 65.8107
margin_right = 287.793
margin_bottom = 93.8107
custom_fonts/font = ExtResource( 8 )
custom_colors/font_color = Color( 0.4, 0.929412, 0.941176, 1 )
text = "Time Until Recover: 0"
__meta__ = {
"_edit_use_anchors_": false
}

[node name="LargeLightCooldownLabel" type="Label" parent="CanvasLayer"]
margin_left = 11.3811
margin_top = 95.9713
margin_right = 289.38
margin_bottom = 123.971
custom_fonts/font = ExtResource( 8 )
custom_colors/font_color = Color( 0.4, 0.929412, 0.941176, 1 )
text = "Large Light Cooldown: 0"
__meta__ = {
"_edit_use_anchors_": false
}

[node name="OrbCountLabel" type="Label" parent="CanvasLayer"]
margin_left = 11.3811
margin_top = 125.734
margin_right = 289.38
margin_bottom = 153.734
custom_fonts/font = ExtResource( 8 )
custom_colors/font_color = Color( 0.4, 0.929412, 0.941176, 1 )
text = "Orb Collected:"
__meta__ = {
"_edit_use_anchors_": false
}

[node name="NearestOrbDistanceLabel" type="Label" parent="CanvasLayer"]
margin_left = 11.0
margin_top = 156.0
margin_right = 289.0
margin_bottom = 187.0
custom_fonts/font = ExtResource( 8 )
custom_colors/font_color = Color( 0.4, 0.929412, 0.941176, 1 )
text = "Nearest Orb Distance: ~"
__meta__ = {
"_edit_use_anchors_": false
}

[node name="DialogBox" parent="CanvasLayer" instance=ExtResource( 10 )]
visible = false

[node name="Orb" parent="." instance=ExtResource( 9 )]
position = Vector2( 735.946, 960.392 )

[node name="Orb5" parent="." instance=ExtResource( 9 )]
position = Vector2( 2675.01, 1413.77 )

[node name="Orb2" parent="." instance=ExtResource( 9 )]
position = Vector2( 3270.99, 579.599 )

[node name="Orb4" parent="." instance=ExtResource( 9 )]
position = Vector2( 4990.3, 1760.37 )

[node name="Orb3" parent="." instance=ExtResource( 9 )]
position = Vector2( 3160.58, -54.5171 )

[node name="Slime" parent="." instance=ExtResource( 12 )]
position = Vector2( 2902.97, 789.218 )

[node name="Slime2" parent="." instance=ExtResource( 12 )]
position = Vector2( 2994.37, 789.218 )

[node name="Slime3" parent="." instance=ExtResource( 12 )]
position = Vector2( 3087.27, 789.218 )

[node name="Slime4" parent="." instance=ExtResource( 12 )]
position = Vector2( 3182.41, 788.469 )

[node name="Slime5" parent="." instance=ExtResource( 12 )]
position = Vector2( 3279.05, 786.221 )

[node name="Slime6" parent="." instance=ExtResource( 12 )]
position = Vector2( 3368.43, 786.221 )

[node name="Slime7" parent="." instance=ExtResource( 12 )]
position = Vector2( 3456.31, 785.472 )

[node name="Slime8" parent="." instance=ExtResource( 12 )]
position = Vector2( 851.322, 938.707 )

[node name="Slime9" parent="." instance=ExtResource( 12 )]
position = Vector2( 947.322, 936.707 )

[node name="Slime10" parent="." instance=ExtResource( 12 )]
position = Vector2( 1049.32, 936.707 )

[node name="Slime11" parent="." instance=ExtResource( 12 )]
position = Vector2( 1151.32, 942.707 )

[node name="Slime21" parent="." instance=ExtResource( 12 )]
position = Vector2( 1244.16, -255.677 )

[node name="Slime22" parent="." instance=ExtResource( 12 )]
position = Vector2( 952.156, -245.677 )

[node name="Slime23" parent="." instance=ExtResource( 12 )]
position = Vector2( 2008.31, -247.838 )

[node name="Slime24" parent="." instance=ExtResource( 12 )]
position = Vector2( 1694.36, -243.081 )

[node name="Slime25" parent="." instance=ExtResource( 12 )]
position = Vector2( 375.833, -118.355 )

[node name="Slime26" parent="." instance=ExtResource( 12 )]
position = Vector2( 120.447, -113.606 )

[node name="Slime14" parent="." instance=ExtResource( 12 )]
position = Vector2( -1178.48, -1.94135 )

[node name="Slime15" parent="." instance=ExtResource( 12 )]
position = Vector2( -509.253, -162.394 )

[node name="Slime16" parent="." instance=ExtResource( 12 )]
position = Vector2( 3605.43, -58.5035 )

[node name="Slime17" parent="." instance=ExtResource( 12 )]
position = Vector2( 4245.96, -58.1147 )

[node name="Slime18" parent="." instance=ExtResource( 12 )]
position = Vector2( 4631.51, -58.7301 )

[node name="Slime19" parent="." instance=ExtResource( 12 )]
position = Vector2( 5301.39, -49.8211 )

[node name="Slime20" parent="." instance=ExtResource( 12 )]
position = Vector2( 5786.04, -56.9483 )

[node name="Slime12" parent="." instance=ExtResource( 12 )]
position = Vector2( 325.874, 764.918 )

[node name="Slime13" parent="." instance=ExtResource( 12 )]
position = Vector2( 856.604, 581.464 )

[node name="Flea" parent="." instance=ExtResource( 14 )]
position = Vector2( 3311.33, 202.091 )
moveRightRange = 0
moveLeftRange = 250

[node name="Flea2" parent="." instance=ExtResource( 14 )]
position = Vector2( 681.042, 933.401 )
moveRightRange = 0
moveLeftRange = 250

[node name="Flea3" parent="." instance=ExtResource( 14 )]
position = Vector2( 1941.44, 234.945 )
moveRightRange = 0
moveLeftRange = 250

[node name="Flea4" parent="." instance=ExtResource( 14 )]
position = Vector2( 3.25244, 1386.89 )
moveLeftRange = 0

[node name="Flea5" parent="." instance=ExtResource( 14 )]
position = Vector2( 1349.1, 1384.23 )
moveRightRange = 0

[node name="Flea11" parent="." instance=ExtResource( 14 )]
position = Vector2( 1025.27, -952.426 )

[node name="Flea12" parent="." instance=ExtResource( 14 )]
position = Vector2( 282.366, -946.076 )

[node name="Flea6" parent="." instance=ExtResource( 14 )]
position = Vector2( 2655.43, 1391.22 )
moveLeftRange = 0

[node name="Flea13" parent="." instance=ExtResource( 14 )]
position = Vector2( 2516.84, 1043.48 )
moveLeftRange = 0

[node name="Flea7" parent="." instance=ExtResource( 14 )]
position = Vector2( 3806.88, 1382.21 )
moveRightRange = 0

[node name="Flea8" parent="." instance=ExtResource( 14 )]
position = Vector2( 5134.05, 1382.87 )
moveLeftRange = 0

[node name="Flea9" parent="." instance=ExtResource( 14 )]
position = Vector2( 5936.6, 1388.87 )
moveRightRange = 0

[node name="Flea10" parent="." instance=ExtResource( 14 )]
position = Vector2( 6955.08, 1394.89 )
moveLeftRange = 0
[connection signal="timeout" from="Player/Timer" to="Player/Timer" method="_on_Timer_timeout"]
[connection signal="timeout" from="Player/LightLargerTimer" to="Player" method="_on_LightLargerTimer_timeout"]
[connection signal="timeout" from="Player/LightLargerCooldown" to="Player/Timer" method="_on_LightLargerCooldown_timeout"]
[connection signal="timeout" from="Player/TeleportTimer" to="Player/TeleportTimer" method="_on_TeleportTImer_timeout"]
