[gd_resource type="DynamicFont" load_steps=2 format=2]

[ext_resource path="res://Assets/Fonts/Raw/CC Wild Words Roman.ttf" type="DynamicFontData" id=1]

[resource]
size = 120
outline_size = 10
outline_color = Color( 0.341176, 0.0196078, 0.0196078, 1 )
font_data = ExtResource( 1 )
