[gd_resource type="DynamicFont" load_steps=2 format=2]

[ext_resource path="res://Assets/Fonts/Raw/MedievalSharp-Regular.ttf" type="DynamicFontData" id=1]

[resource]
size = 80
outline_size = 11
outline_color = Color( 0, 0, 0, 1 )
font_data = ExtResource( 1 )
